org/apache/commons/logging/security/SecurityForbiddenTestCase$CustomHashtable.class
org/apache/commons/logging/security/DummyClass.class
org/apache/commons/logging/LoadTestCase$AppClassLoader.class
org/apache/commons/logging/NullClassLoaderTestCase.class
org/apache/commons/logging/noop/NoOpLogTestCase.class
org/apache/commons/logging/simple/LogRecord.class
org/apache/commons/logging/log4j/log4j12/ParentClasspathStandardTestCase.class
org/apache/commons/logging/logkit/StandardTestCase.class
org/apache/commons/logging/jdk14/TestHandler.class
org/apache/commons/logging/LoadTestCase.class
org/apache/commons/logging/tccl/log/TcclEnabledTestCase.class
org/apache/commons/logging/tccl/custom/MyLogFactoryImpl.class
org/apache/commons/logging/tccl/logfactory/TcclDisabledTestCase.class
org/apache/commons/logging/log4j/log4j12/ApiClasspathStandardTestCase.class
org/apache/commons/logging/simple/DecoratedSimpleLog.class
org/apache/commons/logging/security/MockSecurityManager.class
org/apache/commons/logging/log4j/StandardTests.class
org/apache/commons/logging/security/SecurityAllowedTestCase$CustomHashtable.class
org/apache/commons/logging/log4j/StandardTests$LogEvent.class
org/apache/commons/logging/avalon/AvalonLoggerTestCase.class
org/apache/commons/logging/simple/DateTimeCustomConfigTestCase.class
org/apache/commons/logging/log4j/log4j12/Log4j12StandardTests.class
org/apache/commons/logging/jdk14/CustomConfigFullTestCase.class
org/apache/commons/logging/tccl/log/TcclDisabledTestCase.class
org/apache/commons/logging/config/PriorityConfigTestCase.class
org/apache/commons/logging/simple/DefaultConfigTestCase.class
org/apache/commons/logging/jdk14/CustomConfigAPITestCase.class
org/apache/commons/logging/SimpleLogTestCase.class
org/apache/commons/logging/pathable/ParentFirstTestCase.class
org/apache/commons/logging/impl/WeakHashtableTestCase$StupidThread.class
org/apache/commons/logging/jdk14/DefaultConfigTestCase.class
org/apache/commons/logging/UserClass.class
org/apache/commons/logging/config/FirstPriorityConfigTestCase.class
org/apache/commons/logging/AltHashtable.class
org/apache/commons/logging/pathable/GeneralTestCase.class
org/apache/commons/logging/tccl/logfactory/TcclEnabledTestCase.class
org/apache/commons/logging/PathableTestSuite.class
org/apache/commons/logging/pathable/ChildFirstTestCase.class
org/apache/commons/logging/simple/CustomConfigTestCase.class
org/apache/commons/logging/AltHashtableTestCase.class
org/apache/commons/logging/impl/WeakHashtableTestCase.class
org/apache/commons/logging/log4j/log4j12/ChildClasspathStandardTestCase.class
org/apache/commons/logging/servlet/BasicServletTestCase.class
org/apache/commons/logging/AbstractLogTest.class
org/apache/commons/logging/log4j/log4j12/TestAppender.class
org/apache/commons/logging/jdk14/CustomConfigTestCase.class
org/apache/commons/logging/tccl/BadTCCLTestCase.class
org/apache/commons/logging/security/SecurityForbiddenTestCase.class
org/apache/commons/logging/log4j/log4j12/AppClasspathStandardTestCase.class
org/apache/commons/logging/BadHashtablePropertyTestCase.class
org/apache/commons/logging/tccl/NullTCCLTestCase.class
org/apache/commons/logging/DummyException.class
org/apache/commons/logging/BasicOperationsTestCase.class
org/apache/commons/logging/LogTestCase.class
org/apache/commons/logging/PathableClassLoader.class
org/apache/commons/logging/tccl/custom/MyLog.class
org/apache/commons/logging/security/SecurityAllowedTestCase.class
